3 River Wireless
XXX-XXX-XXXX@sms.3rivers.net

ACS Wireless
XXX-XXX-XXXX@paging.acswireless.com

Alltel
XXX-XXX-XXXX@message.alltel.com

AT&T
XXX-XXX-XXXX@txt.att.net

Bell Canada
XXX-XXX-XXXX@txt.bellmobility.ca

Bell Canada
XXX-XXX-XXXX@bellmobility.ca

Bell Mobility (Canada)
XXX-XXX-XXXX@txt.bell.ca

Bell Mobility
XXX-XXX-XXXX@txt.bellmobility.ca

Blue Sky Frog
XXX-XXX-XXXX@blueskyfrog.com

Bluegrass Cellular
XXX-XXX-XXXX@sms.bluecell.com

Boost Mobile
XXX-XXX-XXXX@myboostmobile.com

BPL Mobile
XXX-XXX-XXXX@bplmobile.com

Carolina West Wireless
XXX-XXX-XXXX@cwwsms.com

Cellular One
XXX-XXX-XXXX@mobile.celloneusa.com

Cellular South
XXX-XXX-XXXX@csouth1.com

Centennial Wireless
XXX-XXX-XXXX@cwemail.com

CenturyTel
XXX-XXX-XXXX@messaging.centurytel.net

Cingular (Now AT&T)
XXX-XXX-XXXX@txt.att.net

Clearnet
XXX-XXX-XXXX@msg.clearnet.com

Comcast
XXX-XXX-XXXX@comcastpcs.textmsg.com

Corr Wireless Communications
XXX-XXX-XXXX@corrwireless.net

Dobson
XXX-XXX-XXXX@mobile.dobson.net

Edge Wireless
XXX-XXX-XXXX@sms.edgewireless.com

Fido
XXX-XXX-XXXX@fido.ca

Golden Telecom
XXX-XXX-XXXX@sms.goldentele.com

Helio
XXX-XXX-XXXX@messaging.sprintpcs.com

Houston Cellular
XXX-XXX-XXXX@text.houstoncellular.net

Idea Cellular
XXX-XXX-XXXX@ideacellular.net

Illinois Valley Cellular
XXX-XXX-XXXX@ivctext.com

Inland Cellular Telephone
XXX-XXX-XXXX@inlandlink.com

MCI
XXX-XXX-XXXX@pagemci.com

Metrocall
XXX-XXX-XXXX@page.metrocall.com

Metrocall 2-way
XXX-XXX-XXXX@my2way.com

Metro PCS
XXX-XXX-XXXX@mymetropcs.com

Microcell
XXX-XXX-XXXX@fido.ca

Midwest Wireless
XXX-XXX-XXXX@clearlydigital.com

Mobilcomm
XXX-XXX-XXXX@mobilecomm.net

MTS
XXX-XXX-XXXX@text.mtsmobility.com

Nextel
XXX-XXX-XXXX@messaging.nextel.com

OnlineBeep
XXX-XXX-XXXX@onlinebeep.net

PCS One
XXX-XXX-XXXX@pcsone.net

President's Choice
XXX-XXX-XXXX@txt.bell.ca

Public Service Cellular
XXX-XXX-XXXX@sms.pscel.com

Qwest
XXX-XXX-XXXX@qwestmp.com

Rogers AT&T Wireless
XXX-XXX-XXXX@pcs.rogers.com

Rogers Canada
XXX-XXX-XXXX@pcs.rogers.com

Satellink
XXX-XXX-XXXX.pageme@satellink.net

Southwestern Bell
XXX-XXX-XXXX@email.swbw.com

Sprint
XXX-XXX-XXXX@messaging.sprintpcs.com

Sumcom
XXX-XXX-XXXX@tms.suncom.com

Surewest Communicaitons
XXX-XXX-XXXX@mobile.surewest.com

T-Mobile
XXX-XXX-XXXX@tmomail.net

Telus
XXX-XXX-XXXX@msg.telus.com

Tracfone
XXX-XXX-XXXX@txt.att.net

Triton
XXX-XXX-XXXX@tms.suncom.com

Unicel
XXX-XXX-XXXX@utext.com

US Cellular
XXX-XXX-XXXX@email.uscc.net

Solo Mobile
XXX-XXX-XXXX@txt.bell.ca

Sprint
XXX-XXX-XXXX@messaging.sprintpcs.com

Sumcom
XXX-XXX-XXXX@tms.suncom.com

Surewest Communicaitons
XXX-XXX-XXXX@mobile.surewest.com

T-Mobile
XXX-XXX-XXXX@tmomail.net

Telus
XXX-XXX-XXXX@msg.telus.com

Triton
XXX-XXX-XXXX@tms.suncom.com

Unicel
XXX-XXX-XXXX@utext.com

US Cellular
XXX-XXX-XXXX@email.uscc.net

US West
XXX-XXX-XXXX@uswestdatamail.com

Verizon
XXX-XXX-XXXX@vtext.com

Virgin Mobile
XXX-XXX-XXXX@vmobl.com

Virgin Mobile Canada
XXX-XXX-XXXX@vmobile.ca

West Central Wireless
XXX-XXX-XXXX@sms.wcc.net

Western Wireless
XXX-XXX-XXXX@cellularonewest.com
